{
  "dependencies": "oidc",
  "properties": [
    "--logging.level.org.apereo.cas=info",
    
    "--cas.audit.engine.enabled=false",
    "--cas.ticket.crypto.enabled=true",

    "--cas.server.name=https://localhost:8443",
    "--cas.server.prefix=${cas.server.name}/cas",

    "--cas.authn.attribute-repository.stub.attributes.email=casuser@apereo.org",
    "--cas.authn.attribute-repository.stub.attributes.name=CAS",
    "--cas.authn.attribute-repository.stub.attributes.gender=female",
    "--cas.authn.attribute-repository.stub.attributes.preferred_username=casuser",

    "--cas.authn.oauth.code.remove-related-access-tokens=true",
    "--cas.authn.oauth.core.user-profile-view-type=FLAT",
    
    "--cas.authn.oidc.core.issuer=https://localhost:8443/cas/oidc",
    "--cas.authn.oidc.core.include-id-token-claims=false",
    "--cas.authn.oidc.jwks.file-system.jwks-file=file:${#systemProperties['java.io.tmpdir']}/keystore.jwks",

    "--cas.service-registry.core.init-from-json=true",
    "--cas.service-registry.json.location=file:${PWD}/ci/tests/puppeteer/scenarios/${SCENARIO}/services"
  ]
}



